{
  "flag": true,
  "msg": "",
  "data": {
    "breadcrumbs": "公告列表",
    "pageInfo": {
      "totalCount": 100,
      "pageIndex": 4,
      "pageCount": 8
    },
    "list": [
      {
        "DateTime": "1441075074406",
        "title": "标题。。。。。。。。。。。。。。。。。。。。。。"
      },
      {
        "DateTime": "1441075074406",
        "title": "标题。。。。。。。。。。。。。。。。。。。。。。"
      },
      {
        "DateTime": "1441075074406",
        "title": "标题。。。。。。。。。。。。。。。。。。。。。。"
      },
      {
        "DateTime": "1441075074406",
        "title": "标题。。。。。。。。。。。。。。。。。。。。。。"
      },
      {
        "DateTime": "1441075074406",
        "title": "标题。。。。。。。。。。。。。。。。。。。。。。"
      },
      {
        "DateTime": "1441075074406",
        "title": "标题。。。。。。。。。。。。。。。。。。。。。。"
      },
      {
        "DateTime": "1441075074406",
        "title": "标题。。。。。。。。。。。。。。。。。。。。。。"
      },
      {
        "DateTime": "1441075074406",
        "title": "标题。。。。。。。。。。。。。。。。。。。。。。"
      }
    ]
  }
}