{
  "flag": true,
  "msg": "",
  "data": {
    "breadcrumbs": "告警列表",
    "pageInfo": {
      "totalCount": 100,
      "pageIndex": 4,
      "pageCount": 8
    },
    "list": [
      {
        "DateTime": "1441075074406",
        "ico": "img/profile-pics/2.jpg",
        "title": "标题。。。。。。。。。。。。。。。。。。。。。。",
        "deltail": "描述.............",
        "tel": "13012345678",
        "no": "10000001"
      },
      {
        "DateTime": "1441075074406",
        "ico": "img/profile-pics/2.jpg",
        "title": "标题。。。。。。。。。。。。。。。。。。。。。。",
        "deltail": "描述.............",
        "tel": "13012345678",
        "no": "10000001"
      },
      {
        "DateTime": "1441075074406",
        "ico": "img/profile-pics/2.jpg",
        "title": "标题。。。。。。。。。。。。。。。。。。。。。。",
        "deltail": "描述.............",
        "tel": "13012345678",
        "no": "10000001"
      },
      {
        "DateTime": "1441075074406",
        "ico": "img/profile-pics/2.jpg",
        "title": "标题。。。。。。。。。。。。。。。。。。。。。。",
        "deltail": "描述.............",
        "tel": "13012345678",
        "no": "10000001"
      },
      {
        "DateTime": "1441075074406",
        "ico": "img/profile-pics/2.jpg",
        "title": "标题。。。。。。。。。。。。。。。。。。。。。。",
        "deltail": "描述.............",
        "tel": "13012345678",
        "no": "10000001"
      },
      {
        "DateTime": "1441075074406",
        "ico": "img/profile-pics/2.jpg",
        "title": "标题。。。。。。。。。。。。。。。。。。。。。。",
        "deltail": "描述.............",
        "tel": "13012345678",
        "no": "10000001"
      },
      {
        "DateTime": "1441075074406",
        "ico": "img/profile-pics/2.jpg",
        "title": "标题。。。。。。。。。。。。。。。。。。。。。。",
        "deltail": "描述.............",
        "tel": "13012345678",
        "no": "10000001"
      },
      {
        "DateTime": "1441075074406",
        "ico": "img/profile-pics/2.jpg",
        "title": "标题。。。。。。。。。。。。。。。。。。。。。。",
        "deltail": "描述.............",
        "tel": "13012345678",
        "no": "10000001"
      }
    ]
  }
}