{
  "flag": true,
  "msg": "",
  "data": {
    "breadcrumbs": "查询页面",
    "pageInfo": {
      "totalCount": 100,
      "pageIndex": 4,
      "pageCount": 8
    },
    "list": [
      {
        "DateTime":"1441075074406",
        "firstName": "Alexandra",
        "lastName": "Christopher",
        "userName": "@makinton",
        "nickName": "Ducky"
      },
      {
        "DateTime":"1441075074406",
        "firstName": "Madeleine",
        "lastName": "Hollaway",
        "userName": "@hollway",
        "nickName": "Cheese"
      },
      {
        "DateTime":"1441075074406",
        "firstName": "Sebastian",
        "lastName": "Johnston",
        "userName": "@sebastian",
        "nickName": "Jaycee"
      },
      {
        "DateTime":"1441075074406",
        "firstName": "Mitchell",
        "lastName": "Christin",
        "userName": "@mitchell4u",
        "nickName": "AdskiDeAnus"
      },
      {
        "DateTime":"1441075074406",
        "firstName": "Elizabeth",
        "lastName": "Belkitt",
        "userName": "@belkitt",
        "nickName": "Goat"
      },
      {
        "DateTime":"1441075074406",
        "firstName": "Benjamin",
        "lastName": "Parnell",
        "userName": "@wayne234",
        "nickName": "Pokie"
      },
      {
        "DateTime":"1441075074406",
        "firstName": "Katherine",
        "lastName": "Buckland",
        "userName": "@anitabelle",
        "nickName": "Wokie"
      },
      {
        "DateTime":"1441075074406",
        "firstName": "Nicholas",
        "lastName": "Walmart",
        "userName": "@mwalmart",
        "nickName": "Spike"
      }
    ]
  }
}